-------------------------------------------------------------------------------
Test set: Assettrackr.Facebook.LoginPenelopTest
-------------------------------------------------------------------------------
Tests run: 3, Failures: 0, Errors: 0, Skipped: 0, Time elapsed: 125.078 s - in Assettrackr.Facebook.LoginPenelopTest
